{
  "name":         "landcareresearch-solr",
  "version":      "0.2.1",
  "author":       "Michael Speth",
  "summary":      "Configures and Installs Apache Solr",
  "license":      "GPL-3.0+",
  "source":       "git://bitbucket.org/landcareresearch/puppet-solr.git",
  "project_page": "https://bitbucket.org/landcareresearch/puppet-solr",
  "issues_url":   "https://bitbucket.org/landcareresearch/puppet-solr/issues",
  "operatingsystem_support": [
    {
      "operatingsystem": "Ubuntu",
      "operatingsystemrelease": [
        "12.04",
        "14.04"
      ]
    },
    {
      "operatingsystem": "Centos",
      "operatingsystemrelease": [
        "6.4"
      ]
    }
  ],
  "dependencies": [
    {"name":"puppetlabs-stdlib",         "version_requirement":">= 4.5.0"},
    {"name":"maestrodev-wget",           "version_requirement":">= 1.7.0"},
    {"name":"camptocamp-systemd", "version_requirement":">= 0.2.2"}
  ]
}

